<?xml version="1.0" encoding="UTF-8" standalone="no"?>
<svg
   xmlns:dc="http://purl.org/dc/elements/1.1/"
   xmlns:cc="http://creativecommons.org/ns#"
   xmlns:rdf="http://www.w3.org/1999/02/22-rdf-syntax-ns#"
   xmlns:svg="http://www.w3.org/2000/svg"
   xmlns="http://www.w3.org/2000/svg"
   xmlns:sodipodi="http://sodipodi.sourceforge.net/DTD/sodipodi-0.dtd"
   xmlns:inkscape="http://www.inkscape.org/namespaces/inkscape"
   id="svg4381"
   viewBox="0 0 226.52 270.66"
   version="1.0"
   inkscape:version="0.91 r"
   sodipodi:docname="basic.svg">
  <defs
     id="defs4376" />
  <sodipodi:namedview
     pagecolor="#ffffff"
     bordercolor="#666666"
     borderopacity="1"
     objecttolerance="10"
     gridtolerance="10"
     guidetolerance="10"
     inkscape:pageopacity="0"
     inkscape:pageshadow="2"
     inkscape:window-width="1920"
     inkscape:window-height="1055"
     id="namedview4374"
     showgrid="false"
     inkscape:zoom="2.301637"
     inkscape:cx="57.225097"
     inkscape:cy="189.31199"
     inkscape:window-x="0"
     inkscape:window-y="0"
     inkscape:window-maximized="1"
     inkscape:current-layer="layer1" />
  <g
     id="layer1"
     transform="translate(-235.31 -202.75)">
    <path
       id="path3798"
       d="m329.11 469.47c-20.91-0.72-28.49-3.23-35.78-7.03-2.94-1.54-9.78-6.18-15.56-9.7-2.84-1.73-5.91-3.09-8.09-4.81-2.47-1.96-5.44-5.34-6.58-8.84-1.29-3.96-8.42-136.38-6.2-169.74 0.58-8.69 0.03-13.4 0.16-19.12 0.29-12.88 1.85-16.92 4.3-21.15 2.11-3.66 13.86-8.54 17.77-7.47 3.76 1.03 10.96 7.72 13.47 12.34 5.41 9.97 7.12 14.96 10.16 26 5.21 18.9 6.68 29.6 7.8 39.88 1.11 10.2 2.66 16.42 3.77 19.75 1.12 3.34-0.94 24.77-1.67 35.72-0.58 8.72-2.38 19.87-2.65 31.08-0.27 11.48-0.21 16.25-0.15 23.26 0.06 5.87-0.52 10.44 0.18 18.64 0.63 7.38 2.69 14.68 4.56 19.73 4.27 11.57 15.06 22.58 14.51 21.46z"
       fill-rule="evenodd"
       stroke="#000"
       stroke-width="2"
       fill="#556b2f" />
    <g
       id="g14642"
       stroke="#000"
       transform="translate(-637.9 293.43)"
       fill="#556b2f"
       fill-rule="evenodd">
      <path
         id="path11953"
         stroke-width="2.7145"
         d="m967.26 177.02c7.34 1.93 23.9 1.66 31.55 1.45 5.19-0.15 40.29 1.69 59.39-5.74 8.8-3.4 14-7.3 16.3-11.35 2-3.57 1.8-15.75 1.8-15.75s2.4-63.37 1-79.051c-1.4-16.131-1.5-46.975-3.5-58.313-62.1-1.3822-86.9 2.679-122.94-0.2418 1.11 10.144 1.93 17.065 2.91 20.352 0.98 3.286-0.87 24.625-1.25 35.607-0.3 8.754-3.45 18.451-3.45 29.678 0 11.489-0.43 15.099-0.24 22.109 0.16 5.87-0.98 12.76-0.25 20.92 0.66 7.36 1.87 13.31 5.67 23.17 4.31 11.17 13.49 18.25 13.01 17.16z" />
      <path
         id="path11960"
         stroke-width="2.4462"
         d="m973.76 176.28c6.61 1.74 20.72 0.69 27.64 0.5 4.7-0.13 36.3 1.52 53.5-5.17 4.6-1.78 10.7-7.36 13.8-12.62 2.3-3.8 2.5-12.18 2.5-15.24-0.1-18.92 2.2-53.675 0.9-67.806-1.2-14.538-2.5-58.058-4.4-68.275-55.9-1.246-75.04 1.6074-107.92 0.5881 2.62 9.9479 2.66 47.526 1.61 57.822-1.57 15.519-4.42 44.651-4.25 50.971 0.15 5.29-0.88 16.33-0.22 23.69 0.6 6.63 0.88 10.38 4.3 19.26 3.88 10.07 12.97 17.26 12.54 16.28z" />
    </g>
    <path
       id="path14681"
       d="m310.53 372.35l14.07 0.75s0.96 8.66-1.52 10.19c-1.77 1.1-3.82 1-3.82 1l-0.47 5.68 3.76-0.06-0.54 5.35-13.32-0.76 0.23-4.6 4.12-0.1 0.42-5.63s-2.88-0.17-3.83-2.88c-0.94-2.72 1.02-8.83 0.9-8.94z"
       fill-rule="evenodd"
       stroke="#000"
       stroke-width="2.1241"
       fill="#e6e6e6" />
    <path
       id="path15568"
       d="m430.79 362.49l11.31-0.77s0.41 5.8 0.42 11.89-0.57 11.52-0.57 11.52l-11.49 0.36 0.32-4.95 3.32-0.09-0.25-5.26s-2.2-0.75-3.38-3.37 0.45-9.22 0.32-9.33z"
       fill-rule="evenodd"
       stroke="#000"
       stroke-width="2.1241"
       fill="#e6e6e6" />
    <path
       id="path22936"
       d="m 370.73234,300.96869 2.49,-0.56 2.57,57.42 -2.79,0.32 -2.27,-57.18 z"
       inkscape:connector-curvature="0"
       style="fill:#e3e2db;fill-rule:evenodd;stroke:#000000;stroke-width:1.00969994px" />
    <path
       id="path22949"
       d="m 375.44682,336.81316 -3.23,-0.01 c 0,0 -2.82,5.88 -3.37,9.47 -0.56,3.69 2.62,4.2 4.8,4.18 2.45,-0.02 5.14,-2.05 4.73,-3.8 -0.99,-4.23 -2.93,-9.84 -2.93,-9.84 z m -2.85,7.55 c 0.38,-0.13 1.97,-0.15 2.43,0.19 0.52,0.39 0.98,1.45 0.63,2.32 -0.35,0.87 -1.09,1.33 -2.38,1.38 -1.28,0.05 -1.78,-0.88 -1.95,-1.77 -0.17,-0.89 0.8,-1.94 1.27,-2.12 z"
       inkscape:connector-curvature="0"
       style="fill:#e3e2db;fill-rule:evenodd;stroke:#000000;stroke-width:1.18789995" />
    <path
       id="path22951"
       d="m 371.79234,333.25211 c 0,0 -1.24,1.02 -1.94,2.7 -0.71,1.69 -1.55,3.84 -0.54,4.43 1.01,0.58 2.16,-2.24 4.18,-2.17 1.19,0.04 2.76,1.91 3.79,1.47 1.02,-0.43 0.23,-2.4 -0.62,-4.02 -0.86,-1.62 -1.89,-2.28 -1.89,-2.28 l -2.98,-0.13 z"
       inkscape:connector-curvature="0"
       style="fill:#e3e2db;fill-rule:evenodd;stroke:#000000;stroke-width:1.18789995" />
    <g
       id="g14638"
       fill-rule="evenodd"
       transform="translate(-556.09 348.9)"
       stroke="#000"
       stroke-width="2"
       fill="#556b2f">
      <path
         id="path10973"
         d="m843.34-129.41c-1.62 2.04-6.54 2.06-5.56 2.31 0.47 0.12 3.25 2.44 6.5 5.52 3.42 3.23 6.39 8.49 8.13 11.53 2.56 4.48 7.46 18.543 10.89 33.634 1.23 5.436 2.37 14.328 3.45 20.601 2.02 11.668 3.63 22.081 4.05 23.643 0.99 3.703 4.12 3.554 7.92 2.37 4.88-1.523 25.76-5.542 32.47-5.66 6.69-0.117 25.38-1.303 34.66-0.739 14.62 0.892 32.65 4.334 35.34 4.579 2.68 0.244 11.97 1.904 11.55-5.999-0.31-5.792-1.25-15.017-1.93-19.452-0.83-5.345-3.33-30.654-4.36-35.903-1.28-6.56-2.54-10.444-4.03-15.224-1.52-4.91-3.22-10.88-5.77-14.74-8.69-1.24-5.08-2.78-9.68-6.75-1.73-1.52-13.79-6.11-24.69-9.89-6.48-2.25-12.49-3.27-19.61-3.89-20.05-1.75-40.99 0.11-46.39 0.48-5.17 0.36-25.76 3.88-28.2 6.07-2.42 2.17-3.68 6.17-4.74 7.51z" />
      <path
         id="path11879"
         d="m846.93-127c20.89 18.76 22.58 53.247 24.59 69.407 0.83 6.634 3.55 28.229 7.35 27.046 4.88-1.524 25.76-5.542 32.47-5.661 6.69-0.117 25.37-1.302 34.65-0.739 14.62 0.893 33.35 3.925 35.95 4.645 7.81 2.165 3.52-12.081 2.77-22.665-0.82-11.429-3.77-29.168-5.48-36.703-1.61-7.097-7.52-30.78-12.12-38.76-1.72-1.52-13.78-6.11-24.69-9.89-6.48-2.25-12.48-3.28-19.6-3.9-20.05-1.74-40.99 0.12-46.39 0.49-5.17 0.35-25.74 3.89-28.21 6.07-7 6.18-5.95 6.47-1.29 10.66z" />
    </g>
  </g>
  <metadata
     id="metadata4372">
    <rdf:RDF>
      <cc:Work>
        <dc:format>image/svg+xml</dc:format>
        <dc:type
           rdf:resource="http://purl.org/dc/dcmitype/StillImage" />
        <cc:license
           rdf:resource="http://creativecommons.org/licenses/publicdomain/" />
        <dc:publisher>
          <cc:Agent
             rdf:about="http://openclipart.org/">
            <dc:title>Openclipart</dc:title>
          </cc:Agent>
        </dc:publisher>
        <dc:title></dc:title>
        <dc:date>2008-02-04T06:14:38</dc:date>
        <dc:description>I tried to give the backpack a more natural look by using brown and green</dc:description>
        <dc:source>http://openclipart.org/detail/12526/backpack-(green/brown)-by-markc09</dc:source>
        <dc:creator>
          <cc:Agent>
            <dc:title>markc09</dc:title>
          </cc:Agent>
        </dc:creator>
        <dc:subject>
          <rdf:Bag>
            <rdf:li>backpack</rdf:li>
            <rdf:li>bag</rdf:li>
            <rdf:li>clip art</rdf:li>
            <rdf:li>clipart</rdf:li>
            <rdf:li>colour</rdf:li>
            <rdf:li>contour</rdf:li>
            <rdf:li>hiking</rdf:li>
            <rdf:li>image</rdf:li>
            <rdf:li>luggage</rdf:li>
            <rdf:li>media</rdf:li>
            <rdf:li>outdoors</rdf:li>
            <rdf:li>outline</rdf:li>
            <rdf:li>png</rdf:li>
            <rdf:li>public domain</rdf:li>
            <rdf:li>remix</rdf:li>
            <rdf:li>svg</rdf:li>
            <rdf:li>travel</rdf:li>
            <rdf:li>trip</rdf:li>
          </rdf:Bag>
        </dc:subject>
      </cc:Work>
      <cc:License
         rdf:about="http://creativecommons.org/licenses/publicdomain/">
        <cc:permits
           rdf:resource="http://creativecommons.org/ns#Reproduction" />
        <cc:permits
           rdf:resource="http://creativecommons.org/ns#Distribution" />
        <cc:permits
           rdf:resource="http://creativecommons.org/ns#DerivativeWorks" />
      </cc:License>
    </rdf:RDF>
  </metadata>
</svg>
